CS395T Final
…
df <- rbind((tibble(read.csv("cifar10_results.csv")) %>%
             add_column(dataset="cifar10")),
            (tibble(read.csv("stl10_results.csv")) %>%
             add_column(dataset="stl10")),
            (tibble(read.csv("CIFAR100_results.csv")) %>%
             add_column(dataset="cifar100"))) %>% 
      mutate(ModelType = case_when(BatchSize==64 ~ ModelType,
                                  BatchSize==32 ~ paste(ModelType, "2Block", sep=""))) %>%
      mutate(BatchSize=factor(BatchSize),
             ModelType=factor(ModelType),
             dataset=factor(dataset))
df

## # A tibble: 800 x 9
##    Epoch BatchSize ModelType NumParameters TrainAccuracy ValidationAccuracy
##    <int> <fct>     <fct>             <int>         <dbl>              <dbl>
##  1     0 64        joint           9708095         0.400              0.533
##  2     1 64        joint           9708095         0.544              0.572
##  3     2 64        joint           9708095         0.589              0.608
##  4     3 64        joint           9708095         0.616              0.631
##  5     4 64        joint           9708095         0.639              0.653
##  6     5 64        joint           9708095         0.659              0.660
##  7     6 64        joint           9708095         0.672              0.667
##  8     7 64        joint           9708095         0.680              0.647
##  9     8 64        joint           9708095         0.692              0.666
## 10     9 64        joint           9708095         0.702              0.661
## # ... with 790 more rows, and 3 more variables: TrainTime <dbl>,
## #   ValidationTime <dbl>, dataset <fct>
…
